[gd_resource type="AtlasTexture" load_steps=2 format=3 uid="uid://cb4j0u8v800rw"]

[ext_resource type="Texture2D" uid="uid://xr3qd74n0p0y" path="res://item/#1 - Transparent Icons.png" id="1_agc4n"]

[resource]
atlas = ExtResource("1_agc4n")
region = Rect2(96, 224, 32, 32)
