[gd_scene load_steps=3 format=3 uid="uid://ds1hdkrnjq60h"]

[ext_resource type="PackedScene" uid="uid://cqkomdq1inaap" path="res://scenes/options_menu/options_display_button.tscn" id="1_7i3dp"]
[ext_resource type="Script" path="res://scenes/options_menu/resolution_mode_button.gd" id="2_qlvbb"]

[node name="Resolution_Mode_Button" instance=ExtResource("1_7i3dp")]
script = ExtResource("2_qlvbb")

[node name="Label" parent="HBoxContainer" index="0"]
text = "Resolution"
